Part I:
=======
Use the following big o classifications for questions 1 - 7.
     a. O(1)
     b. O(log n)
     c. O(n)
     d. O(nlog n)
     e. O(n^2)


1. What is the time complexity of the ArrayList method int size()?
   O(1)

2. What is the time complexity of the ArrayList method E get(int)?
   O(1)

3. What is the time complexity of the ArrayList method E set(int, E)? 
   O(1)


 public static void reverse(ArrayList<Integer> L){
	for (int i = 0; i < L.size() / 2; i++)
	    L.set(i, L.set(L.size() - i - 1, L.get(i)));

    }
4. What is the time complexity of reverse?
   O(n) 

5. What is the additional space complexity of reverse?
   O(1) 

 public static void reverse2(ArrayList<Integer> L){
     ArrayList<Integer> temp = new ArrayList<Integer>();
     for (int i = L.size()-1; i >= 0; i--)
          temp.add(L.get(i));
     L = temp;
 }

6. What is the time complexity of reverse2?
   O(n)

7. What is the additional space complexity of reverse2?
   O(n)

8. What is wrong with reverse2? 
   It only changes the reference of L. Doesn't change L.















